…
``` r
library(spData)
library(spDataLarge)
```

``` r
world
```

    ## Simple feature collection with 177 features and 10 fields
    ## Geometry type: MULTIPOLYGON
    ## Dimension:     XY
    ## Bounding box:  xmin: -180 ymin: -90 xmax: 180 ymax: 83.64513
    ## Geodetic CRS:  WGS 84
    ## # A tibble: 177 x 11
    ##    iso_a2 name_long continent region_un subregion type  area_km2     pop lifeExp
    ##    <chr>  <chr>     <chr>     <chr>     <chr>     <chr>    <dbl>   <dbl>   <dbl>
    ##  1 FJ     Fiji      Oceania   Oceania   Melanesia Sove…   1.93e4  8.86e5    70.0
    ##  2 TZ     Tanzania  Africa    Africa    Eastern … Sove…   9.33e5  5.22e7    64.2
    ##  3 EH     Western … Africa    Africa    Northern… Inde…   9.63e4 NA         NA  
    ##  4 CA     Canada    North Am… Americas  Northern… Sove…   1.00e7  3.55e7    82.0
    ##  5 US     United S… North Am… Americas  Northern… Coun…   9.51e6  3.19e8    78.8
    ##  6 KZ     Kazakhst… Asia      Asia      Central … Sove…   2.73e6  1.73e7    71.6
    ##  7 UZ     Uzbekist… Asia      Asia      Central … Sove…   4.61e5  3.08e7    71.0
    ##  8 PG     Papua Ne… Oceania   Oceania   Melanesia Sove…   4.65e5  7.76e6    65.2
    ##  9 ID     Indonesia Asia      Asia      South-Ea… Sove…   1.82e6  2.55e8    68.9
    ## 10 AR     Argentina South Am… Americas  South Am… Sove…   2.78e6  4.30e7    76.3
    ## # … with 167 more rows, and 2 more variables: gdpPercap <dbl>,
    ## #   geom <MULTIPOLYGON [°]>
…
``` r
world["lifeExp"] #これの属するdata.frameはsfの一部なので、必ずgeomが付いてくる
```

    ## Simple feature collection with 177 features and 1 field
    ## Geometry type: MULTIPOLYGON
    ## Dimension:     XY
    ## Bounding box:  xmin: -180 ymin: -90 xmax: 180 ymax: 83.64513
    ## Geodetic CRS:  WGS 84
    ## # A tibble: 177 x 2
    ##    lifeExp                                                                  geom
    ##      <dbl>                                                    <MULTIPOLYGON [°]>
    ##  1    70.0 (((180 -16.06713, 180 -16.55522, 179.3641 -16.80135, 178.7251 -17.01…
    ##  2    64.2 (((33.90371 -0.95, 34.07262 -1.05982, 37.69869 -3.09699, 37.7669 -3.…
    ##  3    NA   (((-8.66559 27.65643, -8.665124 27.58948, -8.6844 27.39574, -8.68729…
    ##  4    82.0 (((-122.84 49, -122.9742 49.00254, -124.9102 49.98456, -125.6246 50.…
    ##  5    78.8 (((-122.84 49, -120 49, -117.0312 49, -116.0482 49, -113 49, -110.05…
    ##  6    71.6 (((87.35997 49.21498, 86.59878 48.54918, 85.76823 48.45575, 85.72048…
    ##  7    71.0 (((55.96819 41.30864, 55.92892 44.99586, 58.50313 45.5868, 58.68999 …
    ##  8    65.2 (((141.0002 -2.600151, 142.7352 -3.289153, 144.584 -3.861418, 145.27…
    ##  9    68.9 (((141.0002 -2.600151, 141.0171 -5.859022, 141.0339 -9.117893, 140.1…
    ## 10    76.3 (((-68.63401 -52.63637, -68.25 -53.1, -67.75 -53.85, -66.45 -54.45, …
    ## # … with 167 more rows
…
``` r
world %>% dplyr::select(lifeExp)
```

    ## Simple feature collection with 177 features and 1 field
    ## Geometry type: MULTIPOLYGON
    ## Dimension:     XY
    ## Bounding box:  xmin: -180 ymin: -90 xmax: 180 ymax: 83.64513
    ## Geodetic CRS:  WGS 84
    ## # A tibble: 177 x 2
    ##    lifeExp                                                                  geom
    ##      <dbl>                                                    <MULTIPOLYGON [°]>
    ##  1    70.0 (((180 -16.06713, 180 -16.55522, 179.3641 -16.80135, 178.7251 -17.01…
    ##  2    64.2 (((33.90371 -0.95, 34.07262 -1.05982, 37.69869 -3.09699, 37.7669 -3.…
    ##  3    NA   (((-8.66559 27.65643, -8.665124 27.58948, -8.6844 27.39574, -8.68729…
    ##  4    82.0 (((-122.84 49, -122.9742 49.00254, -124.9102 49.98456, -125.6246 50.…
    ##  5    78.8 (((-122.84 49, -120 49, -117.0312 49, -116.0482 49, -113 49, -110.05…
    ##  6    71.6 (((87.35997 49.21498, 86.59878 48.54918, 85.76823 48.45575, 85.72048…
    ##  7    71.0 (((55.96819 41.30864, 55.92892 44.99586, 58.50313 45.5868, 58.68999 …
    ##  8    65.2 (((141.0002 -2.600151, 142.7352 -3.289153, 144.584 -3.861418, 145.27…
    ##  9    68.9 (((141.0002 -2.600151, 141.0171 -5.859022, 141.0339 -9.117893, 140.1…
    ## 10    76.3 (((-68.63401 -52.63637, -68.25 -53.1, -67.75 -53.85, -66.45 -54.45, …
    ## # … with 167 more rows

``` r
world %>% dplyr::select(lifeExp) %>% st_drop_geometry() #st = spatial type
```

    ## # A tibble: 177 x 1
    ##    lifeExp
    ##  *   <dbl>
    ##  1    70.0
    ##  2    64.2
    ##  3    NA  
    ##  4    82.0
    ##  5    78.8
    ##  6    71.6
    ##  7    71.0
    ##  8    65.2
    ##  9    68.9
    ## 10    76.3
    ## # … with 167 more rows
…
    ## [1] 37337.32

``` r
gdp_sort = world %>%
  arrange(desc(gdpPercap)) %>%
  dplyr::select(name_long, gdpPercap) %>%
  st_drop_geometry()

gdp_sort
```

    ## # A tibble: 177 x 2
    ##    name_long            gdpPercap
    ##  * <chr>                    <dbl>
    ##  1 Qatar                  120860.
    ##  2 Luxembourg              93655.
    ##  3 Brunei Darussalam       76089.
    ##  4 Kuwait                  70832.
    ##  5 United Arab Emirates    63943.
    ##  6 Switzerland             57218.
    ##  7 United States           51922.
    ##  8 Saudi Arabia            49958.
    ##  9 Ireland                 48898.
    ## 10 Netherlands             45668.
    ## # … with 167 more rows
